…
    ## See spec(...) for full column specifications.

``` r
fit = lm(bwt ~ bhead + blength + wtgain, data = tidy_data_P2)
tidy_data_P2 = modelr::add_residuals(tidy_data_P2, fit)
tidy_data_P2 = modelr::add_predictions(tidy_data_P2, fit)
tidy_data_P2
```

    ## # A tibble: 4,342 x 23
    ##    babysex bhead blength   bwt delwt fincome frace gaweeks malform menarche
    ##    <fct>   <int>   <int> <int> <int>   <int> <fct>   <dbl> <fct>      <int>
    ##  1 2          34      51  3629   177      35 1        39.9 0             13
    ##  2 1          34      48  3062   156      65 2        25.9 0             14
    ##  3 2          36      50  3345   148      85 1        39.9 0             12
    ##  4 1          34      52  3062   157      55 1        40   0             14
    ##  5 2          34      52  3374   156       5 1        41.6 0             13
    ##  6 1          33      52  3374   129      55 1        40.7 0             12
    ##  7 2          33      46  2523   126      96 2        40.3 0             14
    ##  8 2          33      49  2778   140       5 1        37.4 0             12
    ##  9 1          36      52  3515   146      85 1        40.3 0             11
    ## 10 1          33      50  3459   169      75 2        40.7 0             12
    ## # ... with 4,332 more rows, and 13 more variables: mheight <int>,
    ## #   momage <int>, mrace <fct>, parity <int>, pnumlbw <int>, pnumsga <int>,
    ## #   ppbmi <dbl>, ppwt <int>, smoken <dbl>, wtgain <int>,
    ## #   babysex_recode <dbl>, resid <dbl>, pred <dbl>
…
``` r
cv_P2 = tidy_data_P2 %>%
  crossv_mc(n = 50)

print(cv_P2)
```

    ## # A tibble: 50 x 3
    ##    train          test           .id  
    ##    <list>         <list>         <chr>
    ##  1 <S3: resample> <S3: resample> 01   
    ##  2 <S3: resample> <S3: resample> 02   
    ##  3 <S3: resample> <S3: resample> 03   
    ##  4 <S3: resample> <S3: resample> 04   
    ##  5 <S3: resample> <S3: resample> 05   
    ##  6 <S3: resample> <S3: resample> 06   
    ##  7 <S3: resample> <S3: resample> 07   
    ##  8 <S3: resample> <S3: resample> 08   
    ##  9 <S3: resample> <S3: resample> 09   
    ## 10 <S3: resample> <S3: resample> 10   
    ## # ... with 40 more rows

``` r
cv_models = cv_P2 %>%
  mutate(model = map(train, ~lm(bwt ~ bhead + blength + wtgain, data = .)),
         model2 = map(train, ~lm(bwt ~ blength + gaweeks, data = .)),
         model3 = map(train, ~lm(bwt ~ bhead + blength + babysex + bhead*babysex + bhead*blength + blength*babysex, data = .)))

print(cv_models)
```

    ## # A tibble: 50 x 6
    ##    train          test           .id   model    model2   model3  
    ##    <list>         <list>         <chr> <list>   <list>   <list>  
    ##  1 <S3: resample> <S3: resample> 01    <S3: lm> <S3: lm> <S3: lm>
    ##  2 <S3: resample> <S3: resample> 02    <S3: lm> <S3: lm> <S3: lm>
    ##  3 <S3: resample> <S3: resample> 03    <S3: lm> <S3: lm> <S3: lm>
    ##  4 <S3: resample> <S3: resample> 04    <S3: lm> <S3: lm> <S3: lm>
    ##  5 <S3: resample> <S3: resample> 05    <S3: lm> <S3: lm> <S3: lm>
    ##  6 <S3: resample> <S3: resample> 06    <S3: lm> <S3: lm> <S3: lm>
    ##  7 <S3: resample> <S3: resample> 07    <S3: lm> <S3: lm> <S3: lm>
    ##  8 <S3: resample> <S3: resample> 08    <S3: lm> <S3: lm> <S3: lm>
    ##  9 <S3: resample> <S3: resample> 09    <S3: lm> <S3: lm> <S3: lm>
    ## 10 <S3: resample> <S3: resample> 10    <S3: lm> <S3: lm> <S3: lm>
    ## # ... with 40 more rows
…
